{"frames": {

"daing1.png":
{
	"frame": {"x":1,"y":132,"w":73,"h":82},
	"rotated": false,
	"trimmed": false,
	"spriteSourceSize": {"x":0,"y":0,"w":73,"h":82},
	"sourceSize": {"w":73,"h":82}
},
"daing2.png":
{
	"frame": {"x":1,"y":1,"w":106,"h":129},
	"rotated": false,
	"trimmed": false,
	"spriteSourceSize": {"x":0,"y":0,"w":106,"h":129},
	"sourceSize": {"w":106,"h":129}
}},
"meta": {
	"app": "https://www.codeandweb.com/texturepacker",
	"version": "1.0",
	"image": "daing.png",
	"format": "RGBA8888",
	"size": {"w":108,"h":215},
	"scale": "1",
	"smartupdate": "$TexturePacker:SmartUpdate:aefc59aa8074e8fed7834f36952b8fae:c53f3cf4b23fcd0aba1fbad5d8e86af8:3bfd6d2fdd6334c3b4365399a10fc68e$"
}
}
