{
    "frames": {
        "player0.png": {
            "frame": {
                "x": 0,
                "y": 0,
                "w": 80,
                "h": 80
            },
            "rotated": false,
            "trimmed": true,
            "spriteSourceSize": {
                "x": 0,
                "y": 0,
                "w": 80,
                "h": 80
            },
            "sourceSize": {
                "w": 80,
                "h": 80
            }
        },
        "player1.png": {
            "frame": {
                "x": 80,
                "y": 0,
                "w": 80,
                "h": 80
            },
            "rotated": false,
            "trimmed": true,
            "spriteSourceSize": {
                "x": 0,
                "y": 0,
                "w": 80,
                "h": 80
            },
            "sourceSize": {
                "w": 80,
                "h": 80
            }
        },
        "player2.png": {
            "frame": {
                "x": 160,
                "y": 0,
                "w": 80,
                "h": 80
            },
            "rotated": false,
            "trimmed": true,
            "spriteSourceSize": {
                "x": 0,
                "y": 0,
                "w": 80,
                "h": 80
            },
            "sourceSize": {
                "w": 80,
                "h": 80
            }
        },
        "player3.png": {
            "frame": {
                "x": 240,
                "y": 0,
                "w": 80,
                "h": 80
            },
            "rotated": false,
            "trimmed": true,
            "spriteSourceSize": {
                "x": 0,
                "y": 0,
                "w": 80,
                "h": 80
            },
            "sourceSize": {
                "w": 80,
                "h": 80
            }
        },
        "player4.png": {
            "frame": {
                "x": 320,
                "y": 0,
                "w": 80,
                "h": 80
            },
            "rotated": false,
            "trimmed": true,
            "spriteSourceSize": {
                "x": 0,
                "y": 0,
                "w": 80,
                "h": 80
            },
            "sourceSize": {
                "w": 80,
                "h": 80
            }
        },
        "player5.png": {
            "frame": {
                "x": 400,
                "y": 0,
                "w": 80,
                "h": 80
            },
            "rotated": false,
            "trimmed": true,
            "spriteSourceSize": {
                "x": 0,
                "y": 0,
                "w": 80,
                "h": 80
            },
            "sourceSize": {
                "w": 80,
                "h": 80
            }
        },

        "player6.png": {
            "frame": {
                "x": 480,
                "y": 0,
                "w": 80,
                "h": 80
            },
            "rotated": false,
            "trimmed": true,
            "spriteSourceSize": {
                "x": 0,
                "y": 0,
                "w": 80,
                "h": 80
            },
            "sourceSize": {
                "w": 80,
                "h": 80
            }
        }
    },
    "meta": {
        "version": "1.0",
        "image": "player.png",
        "format": "RGBA8888",
        "size": {
            "w": 1654,
            "h": 2339
        },
        "scale": "1"
    }
}
