{"frames": {

"run0000.png":
{
	"frame": {"x":311,"y":1,"w":105,"h":112},
	"rotated": false,
	"trimmed": true,
	"spriteSourceSize": {"x":267,"y":203,"w":105,"h":112},
	"sourceSize": {"w":640,"h":480}
},
"run0001.png":
{
	"frame": {"x":1,"y":108,"w":103,"h":125},
	"rotated": false,
	"trimmed": true,
	"spriteSourceSize": {"x":270,"y":204,"w":103,"h":125},
	"sourceSize": {"w":640,"h":480}
},
"run0002.png":
{
	"frame": {"x":93,"y":240,"w":105,"h":149},
	"rotated": false,
	"trimmed": true,
	"spriteSourceSize": {"x":271,"y":187,"w":105,"h":149},
	"sourceSize": {"w":640,"h":480}
},
"run0003.png":
{
	"frame": {"x":110,"y":392,"w":104,"h":164},
	"rotated": false,
	"trimmed": true,
	"spriteSourceSize": {"x":271,"y":174,"w":104,"h":164},
	"sourceSize": {"w":640,"h":480}
},
"run0004.png":
{
	"frame": {"x":216,"y":401,"w":104,"h":170},
	"rotated": false,
	"trimmed": true,
	"spriteSourceSize": {"x":270,"y":166,"w":104,"h":170},
	"sourceSize": {"w":640,"h":480}
},
"run0005.png":
{
	"frame": {"x":431,"y":425,"w":105,"h":176},
	"rotated": false,
	"trimmed": true,
	"spriteSourceSize": {"x":269,"y":158,"w":105,"h":176},
	"sourceSize": {"w":640,"h":480}
},
"run0006.png":
{
	"frame": {"x":322,"y":418,"w":107,"h":172},
	"rotated": false,
	"trimmed": true,
	"spriteSourceSize": {"x":267,"y":157,"w":107,"h":172},
	"sourceSize": {"w":640,"h":480}
},
"run0007.png":
{
	"frame": {"x":1,"y":391,"w":107,"h":163},
	"rotated": false,
	"trimmed": true,
	"spriteSourceSize": {"x":266,"y":163,"w":107,"h":163},
	"sourceSize": {"w":640,"h":480}
},
"run0008.png":
{
	"frame": {"x":200,"y":241,"w":106,"h":149},
	"rotated": false,
	"trimmed": true,
	"spriteSourceSize": {"x":265,"y":173,"w":106,"h":149},
	"sourceSize": {"w":640,"h":480}
},
"run0009.png":
{
	"frame": {"x":309,"y":115,"w":107,"h":128},
	"rotated": false,
	"trimmed": true,
	"spriteSourceSize": {"x":264,"y":188,"w":107,"h":128},
	"sourceSize": {"w":640,"h":480}
},
"run0010.png":
{
	"frame": {"x":1,"y":1,"w":102,"h":103},
	"rotated": false,
	"trimmed": true,
	"spriteSourceSize": {"x":264,"y":205,"w":102,"h":103},
	"sourceSize": {"w":640,"h":480}
},
"run0011.png":
{
	"frame": {"x":105,"y":1,"w":95,"h":105},
	"rotated": false,
	"trimmed": true,
	"spriteSourceSize": {"x":264,"y":212,"w":95,"h":105},
	"sourceSize": {"w":640,"h":480}
},
"run0012.png":
{
	"frame": {"x":106,"y":108,"w":93,"h":130},
	"rotated": false,
	"trimmed": true,
	"spriteSourceSize": {"x":266,"y":194,"w":93,"h":130},
	"sourceSize": {"w":640,"h":480}
},
"run0013.png":
{
	"frame": {"x":524,"y":115,"w":90,"h":144},
	"rotated": false,
	"trimmed": true,
	"spriteSourceSize": {"x":270,"y":180,"w":90,"h":144},
	"sourceSize": {"w":640,"h":480}
},
"run0014.png":
{
	"frame": {"x":1,"y":235,"w":90,"h":150},
	"rotated": false,
	"trimmed": true,
	"spriteSourceSize": {"x":273,"y":169,"w":90,"h":150},
	"sourceSize": {"w":640,"h":480}
},
"run0015.png":
{
	"frame": {"x":411,"y":260,"w":93,"h":156},
	"rotated": false,
	"trimmed": true,
	"spriteSourceSize": {"x":272,"y":162,"w":93,"h":156},
	"sourceSize": {"w":640,"h":480}
},
"run0016.png":
{
	"frame": {"x":506,"y":261,"w":97,"h":162},
	"rotated": false,
	"trimmed": true,
	"spriteSourceSize": {"x":270,"y":158,"w":97,"h":162},
	"sourceSize": {"w":640,"h":480}
},
"run0017.png":
{
	"frame": {"x":308,"y":245,"w":101,"h":154},
	"rotated": false,
	"trimmed": true,
	"spriteSourceSize": {"x":267,"y":164,"w":101,"h":154},
	"sourceSize": {"w":640,"h":480}
},
"run0018.png":
{
	"frame": {"x":418,"y":115,"w":104,"h":143},
	"rotated": false,
	"trimmed": true,
	"spriteSourceSize": {"x":267,"y":167,"w":104,"h":143},
	"sourceSize": {"w":640,"h":480}
},
"run0019.png":
{
	"frame": {"x":201,"y":114,"w":106,"h":125},
	"rotated": false,
	"trimmed": true,
	"spriteSourceSize": {"x":267,"y":173,"w":106,"h":125},
	"sourceSize": {"w":640,"h":480}
},
"run0020.png":
{
	"frame": {"x":202,"y":1,"w":107,"h":111},
	"rotated": false,
	"trimmed": true,
	"spriteSourceSize": {"x":266,"y":186,"w":107,"h":111},
	"sourceSize": {"w":640,"h":480}
},
"run0021.png":
{
	"frame": {"x":418,"y":1,"w":106,"h":112},
	"rotated": false,
	"trimmed": true,
	"spriteSourceSize": {"x":267,"y":203,"w":106,"h":112},
	"sourceSize": {"w":640,"h":480}
}},
"meta": {
	"app": "https://www.codeandweb.com/texturepacker",
	"version": "1.0",
	"image": "run.png",
	"format": "RGBA8888",
	"size": {"w":615,"h":615},
	"scale": "1",
	"smartupdate": "$TexturePacker:SmartUpdate:2346c9a4493d9468c941b2dcee1e5f7a:963b065555ac1ee1736b3c401c0a4177:0bfa41ad2432204f88f9f54b9f6b3241$"
}
}
