{"frames": {

"throw0000.png":
{
	"frame": {"x":733,"y":379,"w":29,"h":49},
	"rotated": false,
	"trimmed": true,
	"spriteSourceSize": {"x":144,"y":95,"w":29,"h":49},
	"sourceSize": {"w":320,"h":240}
},
"throw0001.png":
{
	"frame": {"x":742,"y":648,"w":29,"h":50},
	"rotated": false,
	"trimmed": true,
	"spriteSourceSize": {"x":144,"y":94,"w":29,"h":50},
	"sourceSize": {"w":320,"h":240}
},
"throw0002.png":
{
	"frame": {"x":723,"y":596,"w":30,"h":50},
	"rotated": false,
	"trimmed": true,
	"spriteSourceSize": {"x":143,"y":94,"w":30,"h":50},
	"sourceSize": {"w":320,"h":240}
},
"throw0003.png":
{
	"frame": {"x":627,"y":397,"w":30,"h":49},
	"rotated": false,
	"trimmed": true,
	"spriteSourceSize": {"x":144,"y":95,"w":30,"h":49},
	"sourceSize": {"w":320,"h":240}
},
"throw0004.png":
{
	"frame": {"x":755,"y":596,"w":29,"h":50},
	"rotated": false,
	"trimmed": true,
	"spriteSourceSize": {"x":144,"y":94,"w":29,"h":50},
	"sourceSize": {"w":320,"h":240}
},
"throw0005.png":
{
	"frame": {"x":710,"y":648,"w":30,"h":50},
	"rotated": false,
	"trimmed": true,
	"spriteSourceSize": {"x":144,"y":94,"w":30,"h":50},
	"sourceSize": {"w":320,"h":240}
},
"throw0006.png":
{
	"frame": {"x":424,"y":637,"w":30,"h":51},
	"rotated": false,
	"trimmed": true,
	"spriteSourceSize": {"x":144,"y":93,"w":30,"h":51},
	"sourceSize": {"w":320,"h":240}
},
"throw0007.png":
{
	"frame": {"x":773,"y":648,"w":30,"h":50},
	"rotated": false,
	"trimmed": true,
	"spriteSourceSize": {"x":144,"y":94,"w":30,"h":50},
	"sourceSize": {"w":320,"h":240}
},
"throw0008.png":
{
	"frame": {"x":729,"y":700,"w":30,"h":50},
	"rotated": false,
	"trimmed": true,
	"spriteSourceSize": {"x":144,"y":94,"w":30,"h":50},
	"sourceSize": {"w":320,"h":240}
},
"throw0009.png":
{
	"frame": {"x":690,"y":590,"w":31,"h":51},
	"rotated": false,
	"trimmed": true,
	"spriteSourceSize": {"x":144,"y":93,"w":31,"h":51},
	"sourceSize": {"w":320,"h":240}
},
"throw0010.png":
{
	"frame": {"x":563,"y":773,"w":31,"h":52},
	"rotated": false,
	"trimmed": true,
	"spriteSourceSize": {"x":144,"y":93,"w":31,"h":52},
	"sourceSize": {"w":320,"h":240}
},
"throw0011.png":
{
	"frame": {"x":424,"y":756,"w":31,"h":55},
	"rotated": false,
	"trimmed": true,
	"spriteSourceSize": {"x":144,"y":91,"w":31,"h":55},
	"sourceSize": {"w":320,"h":240}
},
"throw0012.png":
{
	"frame": {"x":620,"y":545,"w":33,"h":55},
	"rotated": false,
	"trimmed": true,
	"spriteSourceSize": {"x":144,"y":90,"w":33,"h":55},
	"sourceSize": {"w":320,"h":240}
},
"throw0013.png":
{
	"frame": {"x":690,"y":532,"w":35,"h":56},
	"rotated": false,
	"trimmed": true,
	"spriteSourceSize": {"x":142,"y":89,"w":35,"h":56},
	"sourceSize": {"w":320,"h":240}
},
"throw0014.png":
{
	"frame": {"x":563,"y":714,"w":38,"h":57},
	"rotated": false,
	"trimmed": true,
	"spriteSourceSize": {"x":140,"y":87,"w":38,"h":57},
	"sourceSize": {"w":320,"h":240}
},
"throw0015.png":
{
	"frame": {"x":520,"y":736,"w":41,"h":57},
	"rotated": false,
	"trimmed": true,
	"spriteSourceSize": {"x":139,"y":86,"w":41,"h":57},
	"sourceSize": {"w":320,"h":240}
},
"throw0016.png":
{
	"frame": {"x":686,"y":335,"w":45,"h":57},
	"rotated": false,
	"trimmed": true,
	"spriteSourceSize": {"x":137,"y":84,"w":45,"h":57},
	"sourceSize": {"w":320,"h":240}
},
"throw0017.png":
{
	"frame": {"x":456,"y":560,"w":48,"h":56},
	"rotated": false,
	"trimmed": true,
	"spriteSourceSize": {"x":136,"y":83,"w":48,"h":56},
	"sourceSize": {"w":320,"h":240}
},
"throw0018.png":
{
	"frame": {"x":401,"y":438,"w":53,"h":55},
	"rotated": false,
	"trimmed": true,
	"spriteSourceSize": {"x":134,"y":82,"w":53,"h":55},
	"sourceSize": {"w":320,"h":240}
},
"throw0019.png":
{
	"frame": {"x":556,"y":498,"w":56,"h":53},
	"rotated": false,
	"trimmed": true,
	"spriteSourceSize": {"x":133,"y":82,"w":56,"h":53},
	"sourceSize": {"w":320,"h":240}
},
"throw0020.png":
{
	"frame": {"x":568,"y":343,"w":58,"h":52},
	"rotated": false,
	"trimmed": true,
	"spriteSourceSize": {"x":133,"y":82,"w":58,"h":52},
	"sourceSize": {"w":320,"h":240}
},
"throw0021.png":
{
	"frame": {"x":339,"y":441,"w":60,"h":52},
	"rotated": false,
	"trimmed": true,
	"spriteSourceSize": {"x":132,"y":81,"w":60,"h":52},
	"sourceSize": {"w":320,"h":240}
},
"throw0022.png":
{
	"frame": {"x":355,"y":495,"w":62,"h":50},
	"rotated": false,
	"trimmed": true,
	"spriteSourceSize": {"x":131,"y":82,"w":62,"h":50},
	"sourceSize": {"w":320,"h":240}
},
"throw0023.png":
{
	"frame": {"x":562,"y":397,"w":63,"h":49},
	"rotated": false,
	"trimmed": true,
	"spriteSourceSize": {"x":130,"y":82,"w":63,"h":49},
	"sourceSize": {"w":320,"h":240}
},
"throw0024.png":
{
	"frame": {"x":355,"y":547,"w":62,"h":49},
	"rotated": false,
	"trimmed": true,
	"spriteSourceSize": {"x":130,"y":83,"w":62,"h":49},
	"sourceSize": {"w":320,"h":240}
},
"throw0025.png":
{
	"frame": {"x":549,"y":448,"w":62,"h":48},
	"rotated": false,
	"trimmed": true,
	"spriteSourceSize": {"x":129,"y":84,"w":62,"h":48},
	"sourceSize": {"w":320,"h":240}
},
"throw0026.png":
{
	"frame": {"x":556,"y":553,"w":62,"h":47},
	"rotated": false,
	"trimmed": true,
	"spriteSourceSize": {"x":129,"y":85,"w":62,"h":47},
	"sourceSize": {"w":320,"h":240}
},
"throw0027.png":
{
	"frame": {"x":764,"y":301,"w":61,"h":47},
	"rotated": false,
	"trimmed": true,
	"spriteSourceSize": {"x":129,"y":85,"w":61,"h":47},
	"sourceSize": {"w":320,"h":240}
},
"throw0028.png":
{
	"frame": {"x":764,"y":350,"w":61,"h":46},
	"rotated": false,
	"trimmed": true,
	"spriteSourceSize": {"x":129,"y":86,"w":61,"h":46},
	"sourceSize": {"w":320,"h":240}
},
"throw0029.png":
{
	"frame": {"x":555,"y":602,"w":61,"h":46},
	"rotated": false,
	"trimmed": true,
	"spriteSourceSize": {"x":128,"y":87,"w":61,"h":46},
	"sourceSize": {"w":320,"h":240}
},
"throw0030.png":
{
	"frame": {"x":457,"y":736,"w":61,"h":45},
	"rotated": false,
	"trimmed": true,
	"spriteSourceSize": {"x":128,"y":87,"w":61,"h":45},
	"sourceSize": {"w":320,"h":240}
},
"throw0031.png":
{
	"frame": {"x":764,"y":398,"w":61,"h":45},
	"rotated": false,
	"trimmed": true,
	"spriteSourceSize": {"x":128,"y":87,"w":61,"h":45},
	"sourceSize": {"w":320,"h":240}
},
"throw0032.png":
{
	"frame": {"x":614,"y":498,"w":61,"h":45},
	"rotated": false,
	"trimmed": true,
	"spriteSourceSize": {"x":128,"y":87,"w":61,"h":45},
	"sourceSize": {"w":320,"h":240}
},
"throw0033.png":
{
	"frame": {"x":671,"y":440,"w":61,"h":44},
	"rotated": false,
	"trimmed": true,
	"spriteSourceSize": {"x":128,"y":88,"w":61,"h":44},
	"sourceSize": {"w":320,"h":240}
},
"throw0034.png":
{
	"frame": {"x":671,"y":394,"w":60,"h":44},
	"rotated": false,
	"trimmed": true,
	"spriteSourceSize": {"x":128,"y":88,"w":60,"h":44},
	"sourceSize": {"w":320,"h":240}
},
"throw0035.png":
{
	"frame": {"x":764,"y":445,"w":60,"h":43},
	"rotated": false,
	"trimmed": true,
	"spriteSourceSize": {"x":128,"y":89,"w":60,"h":43},
	"sourceSize": {"w":320,"h":240}
},
"throw0036.png":
{
	"frame": {"x":677,"y":486,"w":59,"h":44},
	"rotated": false,
	"trimmed": true,
	"spriteSourceSize": {"x":129,"y":89,"w":59,"h":44},
	"sourceSize": {"w":320,"h":240}
},
"throw0037.png":
{
	"frame": {"x":738,"y":490,"w":59,"h":44},
	"rotated": false,
	"trimmed": true,
	"spriteSourceSize": {"x":129,"y":89,"w":59,"h":44},
	"sourceSize": {"w":320,"h":240}
},
"throw0038.png":
{
	"frame": {"x":618,"y":602,"w":57,"h":46},
	"rotated": false,
	"trimmed": true,
	"spriteSourceSize": {"x":130,"y":88,"w":57,"h":46},
	"sourceSize": {"w":320,"h":240}
},
"throw0039.png":
{
	"frame": {"x":613,"y":448,"w":56,"h":48},
	"rotated": false,
	"trimmed": true,
	"spriteSourceSize": {"x":131,"y":87,"w":56,"h":48},
	"sourceSize": {"w":320,"h":240}
},
"throw0040.png":
{
	"frame": {"x":504,"y":681,"w":57,"h":53},
	"rotated": false,
	"trimmed": true,
	"spriteSourceSize": {"x":131,"y":85,"w":57,"h":53},
	"sourceSize": {"w":320,"h":240}
},
"throw0041.png":
{
	"frame": {"x":628,"y":334,"w":56,"h":57},
	"rotated": false,
	"trimmed": true,
	"spriteSourceSize": {"x":131,"y":84,"w":56,"h":57},
	"sourceSize": {"w":320,"h":240}
},
"throw0042.png":
{
	"frame": {"x":568,"y":277,"w":57,"h":64},
	"rotated": false,
	"trimmed": true,
	"spriteSourceSize": {"x":131,"y":82,"w":57,"h":64},
	"sourceSize": {"w":320,"h":240}
},
"throw0043.png":
{
	"frame": {"x":510,"y":283,"w":56,"h":72},
	"rotated": false,
	"trimmed": true,
	"spriteSourceSize": {"x":132,"y":80,"w":56,"h":72},
	"sourceSize": {"w":320,"h":240}
},
"throw0044.png":
{
	"frame": {"x":335,"y":294,"w":55,"h":79},
	"rotated": false,
	"trimmed": true,
	"spriteSourceSize": {"x":133,"y":78,"w":55,"h":79},
	"sourceSize": {"w":320,"h":240}
},
"throw0045.png":
{
	"frame": {"x":235,"y":404,"w":65,"h":85},
	"rotated": false,
	"trimmed": true,
	"spriteSourceSize": {"x":123,"y":77,"w":65,"h":85},
	"sourceSize": {"w":320,"h":240}
},
"throw0046.png":
{
	"frame": {"x":229,"y":491,"w":74,"h":90},
	"rotated": false,
	"trimmed": true,
	"spriteSourceSize": {"x":114,"y":76,"w":74,"h":90},
	"sourceSize": {"w":320,"h":240}
},
"throw0047.png":
{
	"frame": {"x":572,"y":1,"w":80,"h":93},
	"rotated": false,
	"trimmed": true,
	"spriteSourceSize": {"x":108,"y":76,"w":80,"h":93},
	"sourceSize": {"w":320,"h":240}
},
"throw0048.png":
{
	"frame": {"x":487,"y":1,"w":83,"h":91},
	"rotated": false,
	"trimmed": true,
	"spriteSourceSize": {"x":104,"y":80,"w":83,"h":91},
	"sourceSize": {"w":320,"h":240}
},
"throw0049.png":
{
	"frame": {"x":224,"y":102,"w":81,"h":88},
	"rotated": false,
	"trimmed": true,
	"spriteSourceSize": {"x":104,"y":85,"w":81,"h":88},
	"sourceSize": {"w":320,"h":240}
},
"throw0050.png":
{
	"frame": {"x":536,"y":96,"w":73,"h":85},
	"rotated": false,
	"trimmed": true,
	"spriteSourceSize": {"x":109,"y":91,"w":73,"h":85},
	"sourceSize": {"w":320,"h":240}
},
"throw0051.png":
{
	"frame": {"x":220,"y":200,"w":59,"h":95},
	"rotated": false,
	"trimmed": true,
	"spriteSourceSize": {"x":120,"y":96,"w":59,"h":95},
	"sourceSize": {"w":320,"h":240}
},
"throw0052.png":
{
	"frame": {"x":103,"y":217,"w":42,"h":104},
	"rotated": false,
	"trimmed": true,
	"spriteSourceSize": {"x":135,"y":100,"w":42,"h":104},
	"sourceSize": {"w":320,"h":240}
},
"throw0053.png":
{
	"frame": {"x":109,"y":323,"w":36,"h":110},
	"rotated": false,
	"trimmed": true,
	"spriteSourceSize": {"x":141,"y":101,"w":36,"h":110},
	"sourceSize": {"w":320,"h":240}
},
"throw0054.png":
{
	"frame": {"x":103,"y":103,"w":42,"h":112},
	"rotated": false,
	"trimmed": true,
	"spriteSourceSize": {"x":142,"y":101,"w":42,"h":112},
	"sourceSize": {"w":320,"h":240}
},
"throw0055.png":
{
	"frame": {"x":50,"y":250,"w":51,"h":109},
	"rotated": false,
	"trimmed": true,
	"spriteSourceSize": {"x":142,"y":101,"w":51,"h":109},
	"sourceSize": {"w":320,"h":240}
},
"throw0056.png":
{
	"frame": {"x":1,"y":652,"w":68,"h":104},
	"rotated": false,
	"trimmed": true,
	"spriteSourceSize": {"x":137,"y":101,"w":68,"h":104},
	"sourceSize": {"w":320,"h":240}
},
"throw0057.png":
{
	"frame": {"x":654,"y":1,"w":79,"h":94},
	"rotated": false,
	"trimmed": true,
	"spriteSourceSize": {"x":133,"y":101,"w":79,"h":94},
	"sourceSize": {"w":320,"h":240}
},
"throw0058.png":
{
	"frame": {"x":147,"y":404,"w":86,"h":80},
	"rotated": false,
	"trimmed": true,
	"spriteSourceSize": {"x":131,"y":101,"w":86,"h":80},
	"sourceSize": {"w":320,"h":240}
},
"throw0059.png":
{
	"frame": {"x":147,"y":486,"w":80,"h":79},
	"rotated": false,
	"trimmed": true,
	"spriteSourceSize": {"x":136,"y":100,"w":80,"h":79},
	"sourceSize": {"w":320,"h":240}
},
"throw0060.png":
{
	"frame": {"x":147,"y":200,"w":71,"h":97},
	"rotated": false,
	"trimmed": true,
	"spriteSourceSize": {"x":140,"y":96,"w":71,"h":97},
	"sourceSize": {"w":320,"h":240}
},
"throw0061.png":
{
	"frame": {"x":1,"y":536,"w":63,"h":114},
	"rotated": false,
	"trimmed": true,
	"spriteSourceSize": {"x":141,"y":93,"w":63,"h":114},
	"sourceSize": {"w":320,"h":240}
},
"throw0062.png":
{
	"frame": {"x":1,"y":1,"w":54,"h":131},
	"rotated": false,
	"trimmed": true,
	"spriteSourceSize": {"x":141,"y":91,"w":54,"h":131},
	"sourceSize": {"w":320,"h":240}
},
"throw0063.png":
{
	"frame": {"x":1,"y":134,"w":47,"h":137},
	"rotated": false,
	"trimmed": true,
	"spriteSourceSize": {"x":140,"y":89,"w":47,"h":137},
	"sourceSize": {"w":320,"h":240}
},
"throw0064.png":
{
	"frame": {"x":1,"y":273,"w":47,"h":134},
	"rotated": false,
	"trimmed": true,
	"spriteSourceSize": {"x":140,"y":88,"w":47,"h":134},
	"sourceSize": {"w":320,"h":240}
},
"throw0065.png":
{
	"frame": {"x":1,"y":409,"w":48,"h":125},
	"rotated": false,
	"trimmed": true,
	"spriteSourceSize": {"x":139,"y":89,"w":48,"h":125},
	"sourceSize": {"w":320,"h":240}
},
"throw0066.png":
{
	"frame": {"x":50,"y":134,"w":51,"h":114},
	"rotated": false,
	"trimmed": true,
	"spriteSourceSize": {"x":137,"y":90,"w":51,"h":114},
	"sourceSize": {"w":320,"h":240}
},
"throw0067.png":
{
	"frame": {"x":51,"y":361,"w":56,"h":104},
	"rotated": false,
	"trimmed": true,
	"spriteSourceSize": {"x":136,"y":92,"w":56,"h":104},
	"sourceSize": {"w":320,"h":240}
},
"throw0068.png":
{
	"frame": {"x":135,"y":639,"w":59,"h":102},
	"rotated": false,
	"trimmed": true,
	"spriteSourceSize": {"x":135,"y":94,"w":59,"h":102},
	"sourceSize": {"w":320,"h":240}
},
"throw0069.png":
{
	"frame": {"x":196,"y":639,"w":59,"h":102},
	"rotated": false,
	"trimmed": true,
	"spriteSourceSize": {"x":133,"y":95,"w":59,"h":102},
	"sourceSize": {"w":320,"h":240}
},
"throw0070.png":
{
	"frame": {"x":257,"y":639,"w":58,"h":102},
	"rotated": false,
	"trimmed": true,
	"spriteSourceSize": {"x":132,"y":96,"w":58,"h":102},
	"sourceSize": {"w":320,"h":240}
},
"throw0071.png":
{
	"frame": {"x":66,"y":534,"w":60,"h":103},
	"rotated": false,
	"trimmed": true,
	"spriteSourceSize": {"x":131,"y":96,"w":60,"h":103},
	"sourceSize": {"w":320,"h":240}
},
"throw0072.png":
{
	"frame": {"x":71,"y":639,"w":62,"h":103},
	"rotated": false,
	"trimmed": true,
	"spriteSourceSize": {"x":130,"y":97,"w":62,"h":103},
	"sourceSize": {"w":320,"h":240}
},
"throw0073.png":
{
	"frame": {"x":213,"y":299,"w":63,"h":103},
	"rotated": false,
	"trimmed": true,
	"spriteSourceSize": {"x":129,"y":97,"w":63,"h":103},
	"sourceSize": {"w":320,"h":240}
},
"throw0074.png":
{
	"frame": {"x":147,"y":299,"w":64,"h":103},
	"rotated": false,
	"trimmed": true,
	"spriteSourceSize": {"x":128,"y":97,"w":64,"h":103},
	"sourceSize": {"w":320,"h":240}
},
"throw0075.png":
{
	"frame": {"x":317,"y":639,"w":65,"h":102},
	"rotated": false,
	"trimmed": true,
	"spriteSourceSize": {"x":128,"y":98,"w":65,"h":102},
	"sourceSize": {"w":320,"h":240}
},
"throw0076.png":
{
	"frame": {"x":281,"y":192,"w":64,"h":100},
	"rotated": false,
	"trimmed": true,
	"spriteSourceSize": {"x":129,"y":99,"w":64,"h":100},
	"sourceSize": {"w":320,"h":240}
},
"throw0077.png":
{
	"frame": {"x":347,"y":192,"w":64,"h":98},
	"rotated": false,
	"trimmed": true,
	"spriteSourceSize": {"x":129,"y":100,"w":64,"h":98},
	"sourceSize": {"w":320,"h":240}
},
"throw0078.png":
{
	"frame": {"x":413,"y":189,"w":64,"h":95},
	"rotated": false,
	"trimmed": true,
	"spriteSourceSize": {"x":129,"y":102,"w":64,"h":95},
	"sourceSize": {"w":320,"h":240}
},
"throw0079.png":
{
	"frame": {"x":551,"y":183,"w":65,"h":92},
	"rotated": false,
	"trimmed": true,
	"spriteSourceSize": {"x":129,"y":105,"w":65,"h":92},
	"sourceSize": {"w":320,"h":240}
},
"throw0080.png":
{
	"frame": {"x":479,"y":188,"w":70,"h":93},
	"rotated": false,
	"trimmed": true,
	"spriteSourceSize": {"x":127,"y":108,"w":70,"h":93},
	"sourceSize": {"w":320,"h":240}
},
"throw0081.png":
{
	"frame": {"x":147,"y":102,"w":75,"h":96},
	"rotated": false,
	"trimmed": true,
	"spriteSourceSize": {"x":126,"y":113,"w":75,"h":96},
	"sourceSize": {"w":320,"h":240}
},
"throw0082.png":
{
	"frame": {"x":404,"y":1,"w":81,"h":97},
	"rotated": false,
	"trimmed": true,
	"spriteSourceSize": {"x":124,"y":118,"w":81,"h":97},
	"sourceSize": {"w":320,"h":240}
},
"throw0083.png":
{
	"frame": {"x":232,"y":1,"w":84,"h":99},
	"rotated": false,
	"trimmed": true,
	"spriteSourceSize": {"x":123,"y":122,"w":84,"h":99},
	"sourceSize": {"w":320,"h":240}
},
"throw0084.png":
{
	"frame": {"x":57,"y":1,"w":85,"h":100},
	"rotated": false,
	"trimmed": true,
	"spriteSourceSize": {"x":123,"y":126,"w":85,"h":100},
	"sourceSize": {"w":320,"h":240}
},
"throw0085.png":
{
	"frame": {"x":144,"y":1,"w":86,"h":99},
	"rotated": false,
	"trimmed": true,
	"spriteSourceSize": {"x":122,"y":131,"w":86,"h":99},
	"sourceSize": {"w":320,"h":240}
},
"throw0086.png":
{
	"frame": {"x":318,"y":1,"w":84,"h":95},
	"rotated": false,
	"trimmed": true,
	"spriteSourceSize": {"x":123,"y":137,"w":84,"h":95},
	"sourceSize": {"w":320,"h":240}
},
"throw0087.png":
{
	"frame": {"x":735,"y":1,"w":80,"h":90},
	"rotated": false,
	"trimmed": true,
	"spriteSourceSize": {"x":124,"y":142,"w":80,"h":90},
	"sourceSize": {"w":320,"h":240}
},
"throw0088.png":
{
	"frame": {"x":307,"y":102,"w":76,"h":88},
	"rotated": false,
	"trimmed": true,
	"spriteSourceSize": {"x":124,"y":144,"w":76,"h":88},
	"sourceSize": {"w":320,"h":240}
},
"throw0089.png":
{
	"frame": {"x":385,"y":100,"w":74,"h":87},
	"rotated": false,
	"trimmed": true,
	"spriteSourceSize": {"x":124,"y":144,"w":74,"h":87},
	"sourceSize": {"w":320,"h":240}
},
"throw0090.png":
{
	"frame": {"x":461,"y":100,"w":73,"h":86},
	"rotated": false,
	"trimmed": true,
	"spriteSourceSize": {"x":125,"y":144,"w":73,"h":86},
	"sourceSize": {"w":320,"h":240}
},
"throw0091.png":
{
	"frame": {"x":611,"y":97,"w":72,"h":84},
	"rotated": false,
	"trimmed": true,
	"spriteSourceSize": {"x":125,"y":143,"w":72,"h":84},
	"sourceSize": {"w":320,"h":240}
},
"throw0092.png":
{
	"frame": {"x":618,"y":183,"w":72,"h":83},
	"rotated": false,
	"trimmed": true,
	"spriteSourceSize": {"x":125,"y":143,"w":72,"h":83},
	"sourceSize": {"w":320,"h":240}
},
"throw0093.png":
{
	"frame": {"x":685,"y":97,"w":71,"h":83},
	"rotated": false,
	"trimmed": true,
	"spriteSourceSize": {"x":126,"y":142,"w":71,"h":83},
	"sourceSize": {"w":320,"h":240}
},
"throw0094.png":
{
	"frame": {"x":692,"y":182,"w":70,"h":83},
	"rotated": false,
	"trimmed": true,
	"spriteSourceSize": {"x":126,"y":141,"w":70,"h":83},
	"sourceSize": {"w":320,"h":240}
},
"throw0095.png":
{
	"frame": {"x":185,"y":743,"w":69,"h":82},
	"rotated": false,
	"trimmed": true,
	"spriteSourceSize": {"x":127,"y":141,"w":69,"h":82},
	"sourceSize": {"w":320,"h":240}
},
"throw0096.png":
{
	"frame": {"x":256,"y":743,"w":67,"h":80},
	"rotated": false,
	"trimmed": true,
	"spriteSourceSize": {"x":129,"y":141,"w":67,"h":80},
	"sourceSize": {"w":320,"h":240}
},
"throw0097.png":
{
	"frame": {"x":325,"y":743,"w":64,"h":79},
	"rotated": false,
	"trimmed": true,
	"spriteSourceSize": {"x":132,"y":140,"w":64,"h":79},
	"sourceSize": {"w":320,"h":240}
},
"throw0098.png":
{
	"frame": {"x":758,"y":93,"w":59,"h":78},
	"rotated": false,
	"trimmed": true,
	"spriteSourceSize": {"x":136,"y":138,"w":59,"h":78},
	"sourceSize": {"w":320,"h":240}
},
"throw0099.png":
{
	"frame": {"x":129,"y":744,"w":54,"h":81},
	"rotated": false,
	"trimmed": true,
	"spriteSourceSize": {"x":141,"y":133,"w":54,"h":81},
	"sourceSize": {"w":320,"h":240}
},
"throw0100.png":
{
	"frame": {"x":71,"y":744,"w":56,"h":81},
	"rotated": false,
	"trimmed": true,
	"spriteSourceSize": {"x":140,"y":129,"w":56,"h":81},
	"sourceSize": {"w":320,"h":240}
},
"throw0101.png":
{
	"frame": {"x":278,"y":297,"w":55,"h":80},
	"rotated": false,
	"trimmed": true,
	"spriteSourceSize": {"x":141,"y":125,"w":55,"h":80},
	"sourceSize": {"w":320,"h":240}
},
"throw0102.png":
{
	"frame": {"x":392,"y":292,"w":57,"h":78},
	"rotated": false,
	"trimmed": true,
	"spriteSourceSize": {"x":141,"y":122,"w":57,"h":78},
	"sourceSize": {"w":320,"h":240}
},
"throw0103.png":
{
	"frame": {"x":451,"y":286,"w":57,"h":74},
	"rotated": false,
	"trimmed": true,
	"spriteSourceSize": {"x":141,"y":119,"w":57,"h":74},
	"sourceSize": {"w":320,"h":240}
},
"throw0104.png":
{
	"frame": {"x":128,"y":567,"w":60,"h":70},
	"rotated": false,
	"trimmed": true,
	"spriteSourceSize": {"x":140,"y":116,"w":60,"h":70},
	"sourceSize": {"w":320,"h":240}
},
"throw0105.png":
{
	"frame": {"x":51,"y":467,"w":60,"h":65},
	"rotated": false,
	"trimmed": true,
	"spriteSourceSize": {"x":141,"y":115,"w":60,"h":65},
	"sourceSize": {"w":320,"h":240}
},
"throw0106.png":
{
	"frame": {"x":764,"y":238,"w":61,"h":61},
	"rotated": false,
	"trimmed": true,
	"spriteSourceSize": {"x":141,"y":114,"w":61,"h":61},
	"sourceSize": {"w":320,"h":240}
},
"throw0107.png":
{
	"frame": {"x":764,"y":173,"w":61,"h":63},
	"rotated": false,
	"trimmed": true,
	"spriteSourceSize": {"x":142,"y":113,"w":61,"h":63},
	"sourceSize": {"w":320,"h":240}
},
"throw0108.png":
{
	"frame": {"x":627,"y":268,"w":59,"h":64},
	"rotated": false,
	"trimmed": true,
	"spriteSourceSize": {"x":143,"y":112,"w":59,"h":64},
	"sourceSize": {"w":320,"h":240}
},
"throw0109.png":
{
	"frame": {"x":339,"y":375,"w":57,"h":64},
	"rotated": false,
	"trimmed": true,
	"spriteSourceSize": {"x":145,"y":112,"w":57,"h":64},
	"sourceSize": {"w":320,"h":240}
},
"throw0110.png":
{
	"frame": {"x":398,"y":372,"w":55,"h":64},
	"rotated": false,
	"trimmed": true,
	"spriteSourceSize": {"x":146,"y":112,"w":55,"h":64},
	"sourceSize": {"w":320,"h":240}
},
"throw0111.png":
{
	"frame": {"x":455,"y":362,"w":53,"h":64},
	"rotated": false,
	"trimmed": true,
	"spriteSourceSize": {"x":147,"y":111,"w":53,"h":64},
	"sourceSize": {"w":320,"h":240}
},
"throw0112.png":
{
	"frame": {"x":510,"y":357,"w":50,"h":64},
	"rotated": false,
	"trimmed": true,
	"spriteSourceSize": {"x":149,"y":110,"w":50,"h":64},
	"sourceSize": {"w":320,"h":240}
},
"throw0113.png":
{
	"frame": {"x":456,"y":428,"w":49,"h":64},
	"rotated": false,
	"trimmed": true,
	"spriteSourceSize": {"x":150,"y":108,"w":49,"h":64},
	"sourceSize": {"w":320,"h":240}
},
"throw0114.png":
{
	"frame": {"x":305,"y":517,"w":48,"h":64},
	"rotated": false,
	"trimmed": true,
	"spriteSourceSize": {"x":151,"y":105,"w":48,"h":64},
	"sourceSize": {"w":320,"h":240}
},
"throw0115.png":
{
	"frame": {"x":456,"y":494,"w":48,"h":64},
	"rotated": false,
	"trimmed": true,
	"spriteSourceSize": {"x":151,"y":102,"w":48,"h":64},
	"sourceSize": {"w":320,"h":240}
},
"throw0116.png":
{
	"frame": {"x":506,"y":499,"w":48,"h":61},
	"rotated": false,
	"trimmed": true,
	"spriteSourceSize": {"x":151,"y":101,"w":48,"h":61},
	"sourceSize": {"w":320,"h":240}
},
"throw0117.png":
{
	"frame": {"x":506,"y":562,"w":47,"h":59},
	"rotated": false,
	"trimmed": true,
	"spriteSourceSize": {"x":151,"y":99,"w":47,"h":59},
	"sourceSize": {"w":320,"h":240}
},
"throw0118.png":
{
	"frame": {"x":456,"y":618,"w":46,"h":57},
	"rotated": false,
	"trimmed": true,
	"spriteSourceSize": {"x":152,"y":98,"w":46,"h":57},
	"sourceSize": {"w":320,"h":240}
},
"throw0119.png":
{
	"frame": {"x":225,"y":583,"w":46,"h":54},
	"rotated": false,
	"trimmed": true,
	"spriteSourceSize": {"x":152,"y":97,"w":46,"h":54},
	"sourceSize": {"w":320,"h":240}
},
"throw0120.png":
{
	"frame": {"x":273,"y":583,"w":45,"h":54},
	"rotated": false,
	"trimmed": true,
	"spriteSourceSize": {"x":152,"y":96,"w":45,"h":54},
	"sourceSize": {"w":320,"h":240}
},
"throw0121.png":
{
	"frame": {"x":504,"y":623,"w":45,"h":56},
	"rotated": false,
	"trimmed": true,
	"spriteSourceSize": {"x":152,"y":95,"w":45,"h":56},
	"sourceSize": {"w":320,"h":240}
},
"throw0122.png":
{
	"frame": {"x":457,"y":677,"w":45,"h":57},
	"rotated": false,
	"trimmed": true,
	"spriteSourceSize": {"x":151,"y":96,"w":45,"h":57},
	"sourceSize": {"w":320,"h":240}
},
"throw0123.png":
{
	"frame": {"x":563,"y":650,"w":44,"h":62},
	"rotated": false,
	"trimmed": true,
	"spriteSourceSize": {"x":151,"y":95,"w":44,"h":62},
	"sourceSize": {"w":320,"h":240}
},
"throw0124.png":
{
	"frame": {"x":688,"y":268,"w":43,"h":65},
	"rotated": false,
	"trimmed": true,
	"spriteSourceSize": {"x":150,"y":95,"w":43,"h":65},
	"sourceSize": {"w":320,"h":240}
},
"throw0125.png":
{
	"frame": {"x":1,"y":758,"w":42,"h":67},
	"rotated": false,
	"trimmed": true,
	"spriteSourceSize": {"x":150,"y":95,"w":42,"h":67},
	"sourceSize": {"w":320,"h":240}
},
"throw0126.png":
{
	"frame": {"x":507,"y":428,"w":40,"h":69},
	"rotated": false,
	"trimmed": true,
	"spriteSourceSize": {"x":150,"y":95,"w":40,"h":69},
	"sourceSize": {"w":320,"h":240}
},
"throw0127.png":
{
	"frame": {"x":384,"y":671,"w":38,"h":70},
	"rotated": false,
	"trimmed": true,
	"spriteSourceSize": {"x":150,"y":96,"w":38,"h":70},
	"sourceSize": {"w":320,"h":240}
},
"throw0128.png":
{
	"frame": {"x":384,"y":598,"w":37,"h":71},
	"rotated": false,
	"trimmed": true,
	"spriteSourceSize": {"x":150,"y":96,"w":37,"h":71},
	"sourceSize": {"w":320,"h":240}
},
"throw0129.png":
{
	"frame": {"x":302,"y":379,"w":35,"h":72},
	"rotated": false,
	"trimmed": true,
	"spriteSourceSize": {"x":151,"y":96,"w":35,"h":72},
	"sourceSize": {"w":320,"h":240}
},
"throw0130.png":
{
	"frame": {"x":419,"y":495,"w":35,"h":72},
	"rotated": false,
	"trimmed": true,
	"spriteSourceSize": {"x":151,"y":96,"w":35,"h":72},
	"sourceSize": {"w":320,"h":240}
},
"throw0131.png":
{
	"frame": {"x":190,"y":567,"w":33,"h":70},
	"rotated": false,
	"trimmed": true,
	"spriteSourceSize": {"x":152,"y":97,"w":33,"h":70},
	"sourceSize": {"w":320,"h":240}
},
"throw0132.png":
{
	"frame": {"x":113,"y":435,"w":32,"h":69},
	"rotated": false,
	"trimmed": true,
	"spriteSourceSize": {"x":153,"y":97,"w":32,"h":69},
	"sourceSize": {"w":320,"h":240}
},
"throw0133.png":
{
	"frame": {"x":391,"y":743,"w":31,"h":68},
	"rotated": false,
	"trimmed": true,
	"spriteSourceSize": {"x":154,"y":98,"w":31,"h":68},
	"sourceSize": {"w":320,"h":240}
},
"throw0134.png":
{
	"frame": {"x":423,"y":569,"w":31,"h":66},
	"rotated": false,
	"trimmed": true,
	"spriteSourceSize": {"x":154,"y":98,"w":31,"h":66},
	"sourceSize": {"w":320,"h":240}
},
"throw0135.png":
{
	"frame": {"x":424,"y":690,"w":31,"h":64},
	"rotated": false,
	"trimmed": true,
	"spriteSourceSize": {"x":154,"y":98,"w":31,"h":64},
	"sourceSize": {"w":320,"h":240}
},
"throw0136.png":
{
	"frame": {"x":305,"y":453,"w":32,"h":62},
	"rotated": false,
	"trimmed": true,
	"spriteSourceSize": {"x":153,"y":99,"w":32,"h":62},
	"sourceSize": {"w":320,"h":240}
},
"throw0137.png":
{
	"frame": {"x":609,"y":650,"w":33,"h":60},
	"rotated": false,
	"trimmed": true,
	"spriteSourceSize": {"x":151,"y":99,"w":33,"h":60},
	"sourceSize": {"w":320,"h":240}
},
"throw0138.png":
{
	"frame": {"x":644,"y":650,"w":33,"h":58},
	"rotated": false,
	"trimmed": true,
	"spriteSourceSize": {"x":151,"y":100,"w":33,"h":58},
	"sourceSize": {"w":320,"h":240}
},
"throw0139.png":
{
	"frame": {"x":727,"y":536,"w":33,"h":58},
	"rotated": false,
	"trimmed": true,
	"spriteSourceSize": {"x":151,"y":99,"w":33,"h":58},
	"sourceSize": {"w":320,"h":240}
},
"throw0140.png":
{
	"frame": {"x":762,"y":536,"w":33,"h":56},
	"rotated": false,
	"trimmed": true,
	"spriteSourceSize": {"x":151,"y":100,"w":33,"h":56},
	"sourceSize": {"w":320,"h":240}
},
"throw0141.png":
{
	"frame": {"x":655,"y":545,"w":33,"h":55},
	"rotated": false,
	"trimmed": true,
	"spriteSourceSize": {"x":151,"y":100,"w":33,"h":55},
	"sourceSize": {"w":320,"h":240}
},
"throw0142.png":
{
	"frame": {"x":320,"y":583,"w":32,"h":54},
	"rotated": false,
	"trimmed": true,
	"spriteSourceSize": {"x":152,"y":100,"w":32,"h":54},
	"sourceSize": {"w":320,"h":240}
},
"throw0143.png":
{
	"frame": {"x":603,"y":714,"w":31,"h":55},
	"rotated": false,
	"trimmed": true,
	"spriteSourceSize": {"x":152,"y":99,"w":31,"h":55},
	"sourceSize": {"w":320,"h":240}
},
"throw0144.png":
{
	"frame": {"x":733,"y":267,"w":29,"h":54},
	"rotated": false,
	"trimmed": true,
	"spriteSourceSize": {"x":154,"y":99,"w":29,"h":54},
	"sourceSize": {"w":320,"h":240}
},
"throw0145.png":
{
	"frame": {"x":733,"y":323,"w":29,"h":54},
	"rotated": false,
	"trimmed": true,
	"spriteSourceSize": {"x":154,"y":99,"w":29,"h":54},
	"sourceSize": {"w":320,"h":240}
},
"throw0146.png":
{
	"frame": {"x":627,"y":771,"w":29,"h":54},
	"rotated": false,
	"trimmed": true,
	"spriteSourceSize": {"x":154,"y":98,"w":29,"h":54},
	"sourceSize": {"w":320,"h":240}
},
"throw0147.png":
{
	"frame": {"x":636,"y":712,"w":29,"h":54},
	"rotated": false,
	"trimmed": true,
	"spriteSourceSize": {"x":154,"y":98,"w":29,"h":54},
	"sourceSize": {"w":320,"h":240}
},
"throw0148.png":
{
	"frame": {"x":596,"y":773,"w":29,"h":52},
	"rotated": false,
	"trimmed": true,
	"spriteSourceSize": {"x":154,"y":98,"w":29,"h":52},
	"sourceSize": {"w":320,"h":240}
},
"throw0149.png":
{
	"frame": {"x":667,"y":710,"w":29,"h":52},
	"rotated": false,
	"trimmed": true,
	"spriteSourceSize": {"x":154,"y":98,"w":29,"h":52},
	"sourceSize": {"w":320,"h":240}
},
"throw0150.png":
{
	"frame": {"x":658,"y":768,"w":29,"h":52},
	"rotated": false,
	"trimmed": true,
	"spriteSourceSize": {"x":154,"y":98,"w":29,"h":52},
	"sourceSize": {"w":320,"h":240}
},
"throw0151.png":
{
	"frame": {"x":689,"y":764,"w":29,"h":52},
	"rotated": false,
	"trimmed": true,
	"spriteSourceSize": {"x":154,"y":97,"w":29,"h":52},
	"sourceSize": {"w":320,"h":240}
},
"throw0152.png":
{
	"frame": {"x":797,"y":590,"w":28,"h":51},
	"rotated": false,
	"trimmed": true,
	"spriteSourceSize": {"x":154,"y":98,"w":28,"h":51},
	"sourceSize": {"w":320,"h":240}
},
"throw0153.png":
{
	"frame": {"x":679,"y":643,"w":29,"h":52},
	"rotated": false,
	"trimmed": true,
	"spriteSourceSize": {"x":154,"y":97,"w":29,"h":52},
	"sourceSize": {"w":320,"h":240}
},
"throw0154.png":
{
	"frame": {"x":734,"y":430,"w":28,"h":52},
	"rotated": false,
	"trimmed": true,
	"spriteSourceSize": {"x":154,"y":97,"w":28,"h":52},
	"sourceSize": {"w":320,"h":240}
},
"throw0155.png":
{
	"frame": {"x":698,"y":700,"w":29,"h":52},
	"rotated": false,
	"trimmed": true,
	"spriteSourceSize": {"x":154,"y":97,"w":29,"h":52},
	"sourceSize": {"w":320,"h":240}
},
"throw0156.png":
{
	"frame": {"x":797,"y":536,"w":28,"h":52},
	"rotated": false,
	"trimmed": true,
	"spriteSourceSize": {"x":154,"y":97,"w":28,"h":52},
	"sourceSize": {"w":320,"h":240}
}},
"meta": {
	"app": "https://www.codeandweb.com/texturepacker",
	"version": "1.0",
	"image": "throw1.png",
	"format": "RGBA8888",
	"size": {"w":826,"h":826},
	"scale": "1",
	"smartupdate": "$TexturePacker:SmartUpdate:cd05a80434c43da8ef1e87e85f44c995:9daf13e2bd0a5ac91542f18d84509131:06ac090e58a539768582e472f09488f9$"
}
}
