{"frames": {

"walk0000.png":
{
	"frame": {"x":102,"y":549,"w":99,"h":65},
	"rotated": false,
	"trimmed": true,
	"spriteSourceSize": {"x":270,"y":216,"w":99,"h":65},
	"sourceSize": {"w":640,"h":480}
},
"walk0001.png":
{
	"frame": {"x":306,"y":542,"w":100,"h":66},
	"rotated": false,
	"trimmed": true,
	"spriteSourceSize": {"x":269,"y":215,"w":100,"h":66},
	"sourceSize": {"w":640,"h":480}
},
"walk0002.png":
{
	"frame": {"x":298,"y":371,"w":100,"h":83},
	"rotated": false,
	"trimmed": true,
	"spriteSourceSize": {"x":268,"y":208,"w":100,"h":83},
	"sourceSize": {"w":640,"h":480}
},
"walk0003.png":
{
	"frame": {"x":298,"y":264,"w":100,"h":105},
	"rotated": false,
	"trimmed": true,
	"spriteSourceSize": {"x":267,"y":201,"w":100,"h":105},
	"sourceSize": {"w":640,"h":480}
},
"walk0004.png":
{
	"frame": {"x":196,"y":419,"w":99,"h":123},
	"rotated": false,
	"trimmed": true,
	"spriteSourceSize": {"x":267,"y":195,"w":99,"h":123},
	"sourceSize": {"w":640,"h":480}
},
"walk0005.png":
{
	"frame": {"x":1,"y":427,"w":99,"h":132},
	"rotated": false,
	"trimmed": true,
	"spriteSourceSize": {"x":267,"y":191,"w":99,"h":132},
	"sourceSize": {"w":640,"h":480}
},
"walk0006.png":
{
	"frame": {"x":392,"y":1,"w":98,"h":136},
	"rotated": false,
	"trimmed": true,
	"spriteSourceSize": {"x":268,"y":188,"w":98,"h":136},
	"sourceSize": {"w":640,"h":480}
},
"walk0007.png":
{
	"frame": {"x":492,"y":1,"w":97,"h":137},
	"rotated": false,
	"trimmed": true,
	"spriteSourceSize": {"x":269,"y":184,"w":97,"h":137},
	"sourceSize": {"w":640,"h":480}
},
"walk0008.png":
{
	"frame": {"x":192,"y":1,"w":98,"h":139},
	"rotated": false,
	"trimmed": true,
	"spriteSourceSize": {"x":270,"y":178,"w":98,"h":139},
	"sourceSize": {"w":640,"h":480}
},
"walk0009.png":
{
	"frame": {"x":292,"y":1,"w":98,"h":138},
	"rotated": false,
	"trimmed": true,
	"spriteSourceSize": {"x":272,"y":174,"w":98,"h":138},
	"sourceSize": {"w":640,"h":480}
},
"walk0010.png":
{
	"frame": {"x":99,"y":285,"w":99,"h":132},
	"rotated": false,
	"trimmed": true,
	"spriteSourceSize": {"x":273,"y":174,"w":99,"h":132},
	"sourceSize": {"w":640,"h":480}
},
"walk0011.png":
{
	"frame": {"x":189,"y":147,"w":102,"h":122},
	"rotated": false,
	"trimmed": true,
	"spriteSourceSize": {"x":273,"y":178,"w":102,"h":122},
	"sourceSize": {"w":640,"h":480}
},
"walk0012.png":
{
	"frame": {"x":488,"y":140,"w":103,"h":108},
	"rotated": false,
	"trimmed": true,
	"spriteSourceSize": {"x":273,"y":185,"w":103,"h":108},
	"sourceSize": {"w":640,"h":480}
},
"walk0013.png":
{
	"frame": {"x":500,"y":250,"w":104,"h":93},
	"rotated": false,
	"trimmed": true,
	"spriteSourceSize": {"x":272,"y":193,"w":104,"h":93},
	"sourceSize": {"w":640,"h":480}
},
"walk0014.png":
{
	"frame": {"x":500,"y":345,"w":104,"h":77},
	"rotated": false,
	"trimmed": true,
	"spriteSourceSize": {"x":271,"y":202,"w":104,"h":77},
	"sourceSize": {"w":640,"h":480}
},
"walk0015.png":
{
	"frame": {"x":500,"y":424,"w":104,"h":66},
	"rotated": false,
	"trimmed": true,
	"spriteSourceSize": {"x":271,"y":213,"w":104,"h":66},
	"sourceSize": {"w":640,"h":480}
},
"walk0016.png":
{
	"frame": {"x":203,"y":544,"w":101,"h":67},
	"rotated": false,
	"trimmed": true,
	"spriteSourceSize": {"x":273,"y":217,"w":101,"h":67},
	"sourceSize": {"w":640,"h":480}
},
"walk0017.png":
{
	"frame": {"x":408,"y":532,"w":101,"h":73},
	"rotated": false,
	"trimmed": true,
	"spriteSourceSize": {"x":274,"y":216,"w":101,"h":73},
	"sourceSize": {"w":640,"h":480}
},
"walk0018.png":
{
	"frame": {"x":400,"y":364,"w":98,"h":89},
	"rotated": false,
	"trimmed": true,
	"spriteSourceSize": {"x":276,"y":208,"w":98,"h":89},
	"sourceSize": {"w":640,"h":480}
},
"walk0019.png":
{
	"frame": {"x":200,"y":271,"w":96,"h":108},
	"rotated": false,
	"trimmed": true,
	"spriteSourceSize": {"x":278,"y":202,"w":96,"h":108},
	"sourceSize": {"w":640,"h":480}
},
"walk0020.png":
{
	"frame": {"x":392,"y":139,"w":94,"h":121},
	"rotated": false,
	"trimmed": true,
	"spriteSourceSize": {"x":279,"y":198,"w":94,"h":121},
	"sourceSize": {"w":640,"h":480}
},
"walk0021.png":
{
	"frame": {"x":102,"y":419,"w":92,"h":128},
	"rotated": false,
	"trimmed": true,
	"spriteSourceSize": {"x":280,"y":194,"w":92,"h":128},
	"sourceSize": {"w":640,"h":480}
},
"walk0022.png":
{
	"frame": {"x":95,"y":148,"w":92,"h":135},
	"rotated": false,
	"trimmed": true,
	"spriteSourceSize": {"x":279,"y":187,"w":92,"h":135},
	"sourceSize": {"w":640,"h":480}
},
"walk0023.png":
{
	"frame": {"x":1,"y":148,"w":92,"h":138},
	"rotated": false,
	"trimmed": true,
	"spriteSourceSize": {"x":279,"y":181,"w":92,"h":138},
	"sourceSize": {"w":640,"h":480}
},
"walk0024.png":
{
	"frame": {"x":1,"y":1,"w":93,"h":145},
	"rotated": false,
	"trimmed": true,
	"spriteSourceSize": {"x":277,"y":175,"w":93,"h":145},
	"sourceSize": {"w":640,"h":480}
},
"walk0025.png":
{
	"frame": {"x":96,"y":1,"w":94,"h":144},
	"rotated": false,
	"trimmed": true,
	"spriteSourceSize": {"x":275,"y":174,"w":94,"h":144},
	"sourceSize": {"w":640,"h":480}
},
"walk0026.png":
{
	"frame": {"x":1,"y":288,"w":96,"h":137},
	"rotated": false,
	"trimmed": true,
	"spriteSourceSize": {"x":272,"y":176,"w":96,"h":137},
	"sourceSize": {"w":640,"h":480}
},
"walk0027.png":
{
	"frame": {"x":293,"y":141,"w":97,"h":121},
	"rotated": false,
	"trimmed": true,
	"spriteSourceSize": {"x":270,"y":182,"w":97,"h":121},
	"sourceSize": {"w":640,"h":480}
},
"walk0028.png":
{
	"frame": {"x":400,"y":262,"w":98,"h":100},
	"rotated": false,
	"trimmed": true,
	"spriteSourceSize": {"x":269,"y":189,"w":98,"h":100},
	"sourceSize": {"w":640,"h":480}
},
"walk0029.png":
{
	"frame": {"x":297,"y":456,"w":98,"h":84},
	"rotated": false,
	"trimmed": true,
	"spriteSourceSize": {"x":269,"y":198,"w":98,"h":84},
	"sourceSize": {"w":640,"h":480}
},
"walk0030.png":
{
	"frame": {"x":400,"y":455,"w":98,"h":75},
	"rotated": false,
	"trimmed": true,
	"spriteSourceSize": {"x":270,"y":207,"w":98,"h":75},
	"sourceSize": {"w":640,"h":480}
},
"walk0031.png":
{
	"frame": {"x":511,"y":492,"w":100,"h":66},
	"rotated": false,
	"trimmed": true,
	"spriteSourceSize": {"x":270,"y":215,"w":100,"h":66},
	"sourceSize": {"w":640,"h":480}
}},
"meta": {
	"app": "https://www.codeandweb.com/texturepacker",
	"version": "1.0",
	"image": "walk1.png",
	"format": "RGBA8888",
	"size": {"w":615,"h":615},
	"scale": "1",
	"smartupdate": "$TexturePacker:SmartUpdate:73907765659b269694a5d9defe0ce74f:b9300462d8fc95ec6d86bf88bf0a4fc3:44b617bb772568e0286dd30e009b11f2$"
}
}
